Process and Convert Files Created by Seabird Products • sbe
…
# read cnv files as data frames
out_sbe_cnv <- list.files(out_dir, full.names = TRUE)
read_sbe_cnv(out_sbe_cnv)
#> # A tibble: 15,225 x 4
#>     prDM t190C `c1S/m`  flag
#>    <dbl> <dbl>   <dbl> <dbl>
#>  1  4.55  8.30    3.66     0
#>  2  4.51  8.30    3.66     0
#>  3  4.55  8.30    3.66     0
#>  4  4.51  8.30    3.66     0
#>  5  4.50  8.30    3.66     0
#>  6  4.51  8.30    3.66     0
#>  7  4.51  8.30    3.66     0
#>  8  4.51  8.30    3.66     0
#>  9  4.50  8.30    3.66     0
#> 10  4.49  8.30    3.66     0
#> # ... with 15,215 more rows
…
