Read Seabird .cnv files — read_sbe_cnv • sbe
…
      widths
      A vector the same length as col_names denoting the
widths of each field in characters. Defaults to 11.

      n_header
      The starting guess for number of header lines.

    Examples

file <- system.file("extdata/faroe/faroe.cnv", package = "sbe")
read_sbe_cnv(file)

#> # A tibble: 15,225 x 6
#>    t090C `c0S/m`  prDM sal00 density00  flag
#>    <dbl>   <dbl> <dbl> <dbl>     <dbl> <dbl>
#>  1  8.30    3.66  4.55  35.1     1027.     0
#>  2  8.30    3.66  4.51  35.1     1027.     0
#>  3  8.30    3.66  4.55  35.1     1027.     0
#>  4  8.30    3.66  4.51  35.1     1027.     0
#>  5  8.30    3.66  4.50  35.1     1027.     0
#>  6  8.30    3.66  4.51  35.1     1027.     0
#>  7  8.30    3.66  4.51  35.1     1027.     0
#>  8  8.30    3.66  4.51  35.1     1027.     0
#>  9  8.30    3.66  4.50  35.1     1027.     0
#> 10  8.30    3.66  4.49  35.1     1027.     0
#> # … with 15,215 more rows
…
